<?xml version="1.0" encoding="UTF-8"?>
<robot generator="Robot 6.0.1 (Python 3.11.1 on win32)" generated="20230101 11:16:36.915" rpa="false" schemaversion="3">
<suite id="s1" name="Testrobotframework" source="C:\Users\a.segarra\Desktop\testrobotframework">
<suite id="s1-s1" name="Connexions-Invalides" source="C:\Users\a.segarra\Desktop\testrobotframework\connexions-invalides.robot">
<test id="s1-s1-t1" name="Test Utilisateur Non Valide Mot De Passe Vide" line="17">
<kw name="Ouvrir Le Navigateur Et Accéder A L'Application" library="commun" type="SETUP">
<kw name="Open Browser" library="SeleniumLibrary">
<arg>${URL}</arg>
<arg>${NAVIGATEUR}</arg>
<doc>Opens a new browser instance to the optional ``url``.</doc>
<msg timestamp="20230101 11:16:37.165" level="INFO">Opening browser 'chrome' to base url 'http://livraison3.testacademy.fr'.</msg>
<status status="PASS" starttime="20230101 11:16:37.165" endtime="20230101 11:16:41.104"/>
</kw>
<kw name="Maximize Browser Window" library="SeleniumLibrary">
<doc>Maximizes current browser window.</doc>
<status status="PASS" starttime="20230101 11:16:41.104" endtime="20230101 11:16:41.264"/>
</kw>
<status status="PASS" starttime="20230101 11:16:37.165" endtime="20230101 11:16:41.264"/>
</kw>
<kw name="Un Message D'Erreur Doit Etre Visible Après Une Connexion Incorrecte">
<arg>faux</arg>
<arg>${EMPTY}</arg>
<kw name="Accéder A La Page De Connexion" library="commun">
<kw name="Click Element" library="SeleniumLibrary">
<arg>${LIEN SE CONNECTER}</arg>
<doc>Click the element identified by ``locator``.</doc>
<msg timestamp="20230101 11:16:41.274" level="INFO">Clicking element 'xpath=//a[contains(text(),'Se connecter')]'.</msg>
<status status="PASS" starttime="20230101 11:16:41.273" endtime="20230101 11:16:41.473"/>
</kw>
<status status="PASS" starttime="20230101 11:16:41.271" endtime="20230101 11:16:41.476"/>
</kw>
<kw name="Saisir Le Nom D'Utilisateur" library="commun">
<arg>${nom utilisateur}</arg>
<kw name="Wait Until Element Is Visible" library="SeleniumLibrary">
<arg>${CHAMP NOM UTILISATEUR}</arg>
<doc>Waits until the element ``locator`` is visible.</doc>
<status status="PASS" starttime="20230101 11:16:41.476" endtime="20230101 11:16:41.743"/>
</kw>
<kw name="Click Element" library="SeleniumLibrary">
<arg>${CHAMP NOM UTILISATEUR}</arg>
<doc>Click the element identified by ``locator``.</doc>
<msg timestamp="20230101 11:16:41.743" level="INFO">Clicking element 'name=username'.</msg>
<status status="PASS" starttime="20230101 11:16:41.743" endtime="20230101 11:16:41.805"/>
</kw>
<kw name="Input Text" library="SeleniumLibrary">
<arg>${CHAMP NOM UTILISATEUR}</arg>
<arg>${utilisateur valide}</arg>
<doc>Types the given ``text`` into the text field identified by ``locator``.</doc>
<msg timestamp="20230101 11:16:41.808" level="INFO">Typing text 'faux' into text field 'name=username'.</msg>
<status status="PASS" starttime="20230101 11:16:41.807" endtime="20230101 11:16:41.933"/>
</kw>
<status status="PASS" starttime="20230101 11:16:41.476" endtime="20230101 11:16:41.933"/>
</kw>
<kw name="Saisir Le Mot De Passe" library="commun">
<arg>${mot de passe}</arg>
<kw name="Input Text" library="SeleniumLibrary">
<arg>${CHAMP MOT DE PASSE}</arg>
<arg>${mot de passe}</arg>
<doc>Types the given ``text`` into the text field identified by ``locator``.</doc>
<msg timestamp="20230101 11:16:41.937" level="INFO">Typing text '' into text field 'name=password'.</msg>
<status status="PASS" starttime="20230101 11:16:41.937" endtime="20230101 11:16:42.069"/>
</kw>
<status status="PASS" starttime="20230101 11:16:41.933" endtime="20230101 11:16:42.069"/>
</kw>
<kw name="Soumette Le Formulaire De Connexion" library="commun">
<kw name="Click Button" library="SeleniumLibrary">
<arg>${BOUTON SE CONNECTER}</arg>
<doc>Clicks the button identified by ``locator``.</doc>
<msg timestamp="20230101 11:16:42.072" level="INFO">Clicking button 'css=.homey_login_button'.</msg>
<status status="PASS" starttime="20230101 11:16:42.070" endtime="20230101 11:16:42.160"/>
</kw>
<status status="PASS" starttime="20230101 11:16:42.070" endtime="20230101 11:16:42.160"/>
</kw>
<kw name="Vérifier Que Le Message D'Erreur Est Visible">
<kw name="Wait Until Element Is Visible" library="SeleniumLibrary">
<arg>${ZONE ERREUR}</arg>
<doc>Waits until the element ``locator`` is visible.</doc>
<status status="PASS" starttime="20230101 11:16:42.160" endtime="20230101 11:16:42.847"/>
</kw>
<status status="PASS" starttime="20230101 11:16:42.160" endtime="20230101 11:16:42.847"/>
</kw>
<status status="PASS" starttime="20230101 11:16:41.264" endtime="20230101 11:16:42.847"/>
</kw>
<status status="PASS" starttime="20230101 11:16:37.165" endtime="20230101 11:16:42.847"/>
</test>
<status status="PASS" starttime="20230101 11:16:36.950" endtime="20230101 11:16:42.851"/>
</suite>
<status status="PASS" starttime="20230101 11:16:36.920" endtime="20230101 11:16:42.854"/>
</suite>
<statistics>
<total>
<stat pass="1" fail="0" skip="0">All Tests</stat>
</total>
<tag>
</tag>
<suite>
<stat pass="1" fail="0" skip="0" id="s1" name="Testrobotframework">Testrobotframework</stat>
<stat pass="1" fail="0" skip="0" id="s1-s1" name="Connexions-Invalides">Testrobotframework.Connexions-Invalides</stat>
</suite>
</statistics>
<errors>
</errors>
</robot>
